{
  "version": "0.2.0",
  "configurations": [
      {
          "name": "HelloWorld (Web)",
          "type": "gdb",
          "request": "launch",
          "program": "${workspaceFolder}/build/hello"
      }
  ]
}
